<svg width="16" height="3" xmlns="http://www.w3.org/2000/svg">

 <g>
  <title>background</title>
  <rect fill="none" id="canvas_background" height="402" width="582" y="-1" x="-1"/>
 </g>
 <g>
  <title>Layer 1</title>
  <path transform="rotate(-180 8,1.500499963760376) " id="svg_1" d="m0.005,3.001l-0.005,-3.001c4.361,0 4.176,2.976 7.997,2.976c3.821,0 3.638,-2.976 7.999,-2.976l0.004,3l-15.995,0l0,0.001z" fill="#f3f2ea"/>
 </g>
</svg>
